<svg xmlns="http://www.w3.org/2000/svg" xmlns:xlink="http://www.w3.org/1999/xlink" xmlns:ev="http://www.w3.org/2001/xml-events"
		xmlns:v="http://schemas.microsoft.com/visio/2003/SVGExtensions/" width="1.68365in" height="2.60884in"
		viewBox="0 0 121.222 187.837" xml:space="preserve" color-interpolation-filters="sRGB" class="st2">

		<linearGradient id="anim"  x1="0%" y1="100%">
      <stop offset="0%" stop-color="#C7C402" stop-opacity="1">
		<animate attributeName="stop-color" 
		values="#C7C402;#FEFE82;#C7C402" dur="500ms" repeatCount="indefinite"/>
		</stop>
    </linearGradient>


		<g id="shape1-1" v:mID="1" v:groupContext="shape" transform="translate(0.375,-0.375)">
			<path fill="url(#anim)" d="M0 0.75 L12.76 0.75 L12.76 7.84 L109.13 7.84 L109.13 0.75 L120.47 0.75 L120.47 71.62 L110.55 71.62 L110.55 63.11
						 L100.63 63.11 L100.63 94.29 L120.47 94.29 L120.47 187.84 L0.62 187.84 L0.62 94.29 L18.43 94.29 L18.43 63.11
						 L9.92 63.11 L9.92 71.62 L0 71.62 L0 0.75 Z" class="st1"/>
		</g>
</svg>
